RCV Data Missingness Audit
…
cat("\nAll rows with any NA:\n")

All rows with any NA:

states_and_cities %>%
  filter(if_any(everything(), is.na)) %>%
  print(n = 30)

# A tibble: 504 x 5
   precinct_id                              dem_share yes_share place recent_lpw
   <chr>                                        <dbl>     <dbl> <chr> <lgl>     
 1 "37-710 Clark's Point "                    NaN           NaN Alas~ TRUE      
 2 "HD99 Fed Overseas Absentee "                0.861        NA Alas~ TRUE      
 3 "AUBURN"                                     0.442        NA Maine TRUE      
 4 "LEEDS"                                      0.319        NA Maine TRUE      
 5 "LIVERMORE"                                  0.352        NA Maine TRUE      
 6 "LIVERMORE FALLS"                            0.370        NA Maine TRUE      
 7 "MECHANIC FALLS"                             0.325        NA Maine TRUE      
 8 "MINOT"                                      0.320        NA Maine TRUE      
 9 "POLAND"                                     0.379        NA Maine TRUE      
10 "WALES"                                      0.246        NA Maine TRUE      
11 "Total:"                                     0.402        NA Maine TRUE      
12 "ALLAGASH"                                   0.408        NA Maine TRUE      
13 "AMITY"                                      0.234        NA Maine TRUE      
14 "ASHLAND"                                    0.331        NA Maine TRUE      
15 "BIG TWENTY TWP/T15 R15 WELS           ~     0            NA Maine TRUE      
16 "BLAINE"                                     0.236        NA Maine TRUE      
17 "BRIDGEWATER"                                0.272        NA Maine TRUE      
18 "CARIBOU"                                    0.390        NA Maine TRUE      
19 "CARY PLT"                                   0.203        NA Maine TRUE      
20 "CASTLE HILL"                                0.363        NA Maine TRUE      
21 "CASWELL"                                    0.490        NA Maine TRUE      
22 "CHAPMAN"                                    0.355        NA Maine TRUE      
23 "CROSS LAKE TWP (T17 R5)"                    0.438        NA Maine TRUE      
24 "CRYSTAL"                                    0.221        NA Maine TRUE      
25 "CYR PLT"                                    0.415        NA Maine TRUE      
26 "DYER BROOK"                                 0.253        NA Maine TRUE      
27 "E TWP                                 ~     0.143        NA Maine TRUE      
28 "EAGLE LAKE"                                 0.451        NA Maine TRUE      
29 "EASTON"                                     0.315        NA Maine TRUE      
30 "FORT FAIRFIELD"                             0.387        NA Maine TRUE      
# i 474 more rows
